…
There is no missing value in our dataframe.

``` r
## convert variables into factor
birthweight_df =
  birthweight_df %>%
    mutate(babysex = recode_factor(babysex, "1" = "male", "2" = "female")) %>% 
    mutate(frace = recode_factor(frace, "1" = "White", "2" = "Black", "3" = "Asian", "4" = "Puerto Rican", "8" = "Other", "9" = "Unknown")) %>% 
    mutate(malform = recode_factor(malform, "0" = "absent", "1" = "present")) %>% 
    mutate(mrace = recode_factor(mrace, "1" = "White", "2" = "Black", "3" = "Asian", "4" = "Puerto Rican", "8" = "Other")) 

birthweight_df
```

    ## # A tibble: 4,342 × 20
    ##    babysex bhead blength   bwt delwt fincome frace gaweeks malform menarche
    ##    <fct>   <dbl>   <dbl> <dbl> <dbl>   <dbl> <fct>   <dbl> <fct>      <dbl>
    ##  1 female     34      51  3629   177      35 White    39.9 absent        13
    ##  2 male       34      48  3062   156      65 Black    25.9 absent        14
    ##  3 female     36      50  3345   148      85 White    39.9 absent        12
    ##  4 male       34      52  3062   157      55 White    40   absent        14
    ##  5 female     34      52  3374   156       5 White    41.6 absent        13
    ##  6 male       33      52  3374   129      55 White    40.7 absent        12
    ##  7 female     33      46  2523   126      96 Black    40.3 absent        14
    ##  8 female     33      49  2778   140       5 White    37.4 absent        12
    ##  9 male       36      52  3515   146      85 White    40.3 absent        11
    ## 10 male       33      50  3459   169      75 Black    40.7 absent        12
    ## # … with 4,332 more rows, and 10 more variables: mheight <dbl>, momage <dbl>,
    ## #   mrace <fct>, parity <dbl>, pnumlbw <dbl>, pnumsga <dbl>, ppbmi <dbl>,
    ## #   ppwt <dbl>, smoken <dbl>, wtgain <dbl>
…
### R\_Square

``` r
R_square_results =
  R_square %>%
mutate(
    models = map(strap_sample, ~lm(tmax ~ tmin, data = .x) ),
    r_results = map(models, broom::glance)) %>% 
  select(-strap_sample, -models) %>% 
  unnest(r_results) 

R_square_results
```

    ## # A tibble: 5,000 × 13
    ##    strap_number r.squared adj.r.squared sigma statistic   p.value    df logLik
    ##           <int>     <dbl>         <dbl> <dbl>     <dbl>     <dbl> <dbl>  <dbl>
    ##  1            1     0.907         0.906  2.94     3524. 5.65e-189     1  -910.
    ##  2            2     0.896         0.896  3.13     3123. 2.12e-180     1  -933.
    ##  3            3     0.918         0.918  2.93     4056. 4.35e-199     1  -909.
    ##  4            4     0.899         0.898  3.13     3222. 1.37e-182     1  -933.
    ##  5            5     0.913         0.913  2.95     3831. 5.73e-195     1  -912.
    ##  6            6     0.919         0.918  2.90     4099. 7.62e-200     1  -906.
    ##  7            7     0.918         0.918  2.83     4084. 1.37e-199     1  -896.
    ##  8            8     0.907         0.907  2.96     3560. 1.06e-189     1  -914.
    ##  9            9     0.916         0.916  2.93     3969. 1.61e-197     1  -909.
    ## 10           10     0.918         0.917  2.82     4044. 7.09e-199     1  -895.
    ## # … with 4,990 more rows, and 5 more variables: AIC <dbl>, BIC <dbl>,
    ## #   deviance <dbl>, df.residual <int>, nobs <int>
…
``` r
Beta_results =
  Beta_df %>%
mutate(
    models = map(strap_sample, ~lm(tmax ~ tmin, data = .x) ),
    beta_results = map(models, broom::tidy)) %>% 
  select(-strap_sample, -models) %>% 
  unnest(beta_results) 

Beta_results
```

    ## # A tibble: 10,000 × 6
    ##    strap_number term        estimate std.error statistic   p.value
    ##           <int> <chr>          <dbl>     <dbl>     <dbl>     <dbl>
    ##  1            1 (Intercept)    7.45     0.223       33.5 5.02e-113
    ##  2            1 tmin           1.03     0.0174      59.4 5.65e-189
    ##  3            2 (Intercept)    7.36     0.243       30.3 1.98e-101
    ##  4            2 tmin           1.03     0.0185      55.9 2.12e-180
    ##  5            3 (Intercept)    7.48     0.215       34.8 8.29e-118
    ##  6            3 tmin           1.04     0.0163      63.7 4.35e-199
    ##  7            4 (Intercept)    7.91     0.234       33.7 6.50e-114
    ##  8            4 tmin           0.998    0.0176      56.8 1.37e-182
    ##  9            5 (Intercept)    6.73     0.243       27.7 1.69e- 91
    ## 10            5 tmin           1.07     0.0173      61.9 5.73e-195
    ## # … with 9,990 more rows
…
